litex-migen/generated_vcd/basic2.vcd
$scope module Counter $end
$var wire 1 ! ce $end
$var wire 37 " count $end
$var wire 1 # sys_clk $end
$enddefinitions $end
$dumpvars
$end
#0
0!
b1111111111111111111111111111111111011 "
0#
#5
1!
1#
#10
0#
#15
0!
b1111111111111111111111111111111111100 "
1#
#20
0#
#25
1!
1#
#30
0#
#35
0!
b1111111111111111111111111111111111101 "
1#
#40
0#
#45
1!
1#
#50
0#
#55
0!
b1111111111111111111111111111111111110 "
1#
#60
0#
#65
1!
1#
#70
0#
#75
0!
b1111111111111111111111111111111111111 "
1#
#80
0#
#85
1!
1#
#90
0#
#95
0!
b0000000000000000000000000000000000000 "
1#
#100
0#
#105
1!
1#
#110
0#
#115
0!
b0000000000000000000000000000000000001 "
1#
#120
0#
#125
1!
1#
#130
0#
#135
0!
b0000000000000000000000000000000000010 "
1#
#140
0#
#145
1!
1#
#150
0#
#155
0!
b0000000000000000000000000000000000011 "
1#
#160
0#
#165
1!
1#
#170
0#
#175
0!
b0000000000000000000000000000000000100 "
1#
#180
0#
#185
1!
1#
#190
0#
#195
0!
b0000000000000000000000000000000000101 "
1#
#200
0#
#205
1#
0!
b1111111111111111111111111111111111011 "
0#
