litex-migen/generated_vcd/basic1.vcd
$scope module Counter $end
$var wire 4 ! count $end
$var wire 1 " sys_clk $end
$enddefinitions $end
$dumpvars
$end
#0
b0000 !
0"
#5
b0001 !
1"
#10
0"
#15
b0010 !
1"
#20
0"
#25
b0011 !
1"
#30
0"
#35
b0100 !
1"
#40
0"
#45
b0101 !
1"
#50
0"
#55
b0110 !
1"
#60
0"
#65
b0111 !
1"
#70
0"
#75
b1000 !
1"
#80
0"
#85
b1001 !
1"
#90
0"
#95
b1010 !
1"
#100
0"
#105
b1011 !
1"
#110
0"
#115
b1100 !
1"
#120
0"
#125
b1101 !
1"
#130
0"
#135
b1110 !
1"
#140
0"
#145
b1111 !
1"
#150
0"
#155
b0000 !
1"
#160
0"
#165
b0001 !
1"
#170
0"
#175
b0010 !
1"
#180
0"
#185
b0011 !
1"
#190
0"
#195
b0100 !
1"
#200
0"
#205
b0101 !
1"
b0000 !
0"
