litex-migen/generated_vcd/graycounter.vcd
$scope module GrayCounter $end
$var wire 1 ! ce $end
$var wire 3 " q $end
$var wire 3 # q_next $end
$var wire 3 $ q_binary $end
$var wire 3 % q_next_binary $end
$var wire 1 & sys_clk $end
$enddefinitions $end
$dumpvars
$end
#0
0!
b000 "
b000 #
b000 $
b000 %
0&
#5
1&
#10
0&
#15
1!
b001 %
b001 #
1&
#20
0&
#25
0!
b001 "
1&
b001 $
#30
0&
#35
1&
#40
0&
#45
1&
#50
0&
#55
1&
#60
0&
#65
1&
#70
0&
#75
1!
b010 %
b011 #
1&
#80
0&
#85
0!
b011 "
1&
b010 $
#90
0&
#95
1&
#100
0&
#105
1&
#110
0&
#115
1!
b011 %
b010 #
1&
#120
0&
#125
b010 "
b110 #
b011 $
b100 %
1&
#130
0&
#135
0!
b110 "
1&
b100 $
#140
0&
#145
1&
#150
0&
#155
1!
b101 %
b111 #
1&
#160
0&
#165
0!
b111 "
1&
b101 $
#170
0&
#175
1&
#180
0&
#185
1!
b110 %
b101 #
1&
#190
0&
#195
0!
b101 "
1&
b110 $
#200
0&
#205
1&
#210
0&
#215
1!
b111 %
b100 #
1&
#220
0&
#225
b100 "
b000 #
b111 $
b000 %
1&
#230
0&
#235
0!
b000 "
1&
b000 $
#240
0&
#245
1!
b001 %
b001 #
1&
#250
0&
#255
b001 "
b011 #
b001 $
b010 %
1&
#260
0&
#265
b011 "
b010 #
b010 $
b011 %
1&
#270
0&
#275
0!
b010 "
1&
b011 $
#280
0&
#285
1&
#290
0&
#295
1&
#300
0&
#305
1&
#310
0&
#315
1!
b100 %
b110 #
1&
#320
0&
#325
0!
b110 "
1&
b100 $
#330
0&
#335
1!
b101 %
b111 #
1&
#340
0&
#345
b111 "
b101 #
b101 $
b110 %
1&
#350
0&
#355
b101 "
b100 #
b110 $
b111 %
1&
0!
b000 "
b000 #
b000 $
b000 %
0&
